…
```r
StepsPerDay<- df %>%
        group_by(date) %>%
        summarise(steps = sum(steps))

StepsPerDay
```

```
## # A tibble: 61 x 2
##    date       steps
##    <chr>      <int>
##  1 2012-10-01    NA
##  2 2012-10-02   126
##  3 2012-10-03 11352
##  4 2012-10-04 12116
##  5 2012-10-05 13294
##  6 2012-10-06 15420
##  7 2012-10-07 11015
##  8 2012-10-08    NA
##  9 2012-10-09 12811
## 10 2012-10-10  9900
## # ... with 51 more rows
```
…
df$FactorDay <- as.factor(df$FactorDay)
```

2. Make a panel plot containing a time series plot (i.e. \color{red}{\verb|type = "l"|}type = "l") of the 5-minute interval (x-axis) and the average number of steps taken, averaged across all weekday days or weekend days (y-axis).

```r
Intervals <- df %>%
        group_by(interval, FactorDay) %>%
        summarise(avg_steps = mean(steps, na.rm = TRUE))
Intervals
```

```
## # A tibble: 576 x 3
## # Groups:   interval [288]
##    interval FactorDay avg_steps
##       <int> <fct>         <dbl>
##  1        0 weekday       2.33 
##  2        0 weekend       0    
##  3        5 weekday       0.462
##  4        5 weekend       0    
##  5       10 weekday       0.179
##  6       10 weekend       0    
##  7       15 weekday       0.205
##  8       15 weekend       0    
##  9       20 weekday       0.103
## 10       20 weekend       0    
## # ... with 566 more rows
```
…
